com/clavata/xmlsigner/include/comonFunc.class
com/clavata/xmlsigner/web/IndexServlet.class
com/clavata/xmlsigner/web/TokenSignServlet.class
com/clavata/xmlsigner/usuario/adminCert.class
com/clavata/xmlsigner/usuario/UsuarioDAO.class
com/clavata/xmlsigner/login/LoginModel.class
com/clavata/xmlsigner/include/Conexion.class
com/clavata/xmlsigner/include/Funciones.class
com/clavata/xmlsigner/usuario/setFirmaPass.class
com/clavata/xmlsigner/web/XmlSignServlet.class
com/clavata/xmlsigner/usuario/uploadCert.class
com/clavata/xmlsigner/usuario/UsuarioServlet.class
com/clavata/xmlsigner/usuario/Usuario.class
com/clavata/xmlsigner/login/LoginServlet.class
com/clavata/xmlsigner/login/SetPassModel.class
com/clavata/xmlsigner/service/TokenSignerService.class
com/clavata/xmlsigner/include/ClavataConfig.class
com/clavata/xmlsigner/login/SetPassServlet.class
com/clavata/xmlsigner/service/XmlSignerService.class
