/home/esteban/proyectos_web/proyecto_clavata/XmlSigner/src/main/java/com/clavata/xmlsigner/include/ClavataConfig.java
/home/esteban/proyectos_web/proyecto_clavata/XmlSigner/src/main/java/com/clavata/xmlsigner/include/Conexion.java
/home/esteban/proyectos_web/proyecto_clavata/XmlSigner/src/main/java/com/clavata/xmlsigner/include/Funciones.java
/home/esteban/proyectos_web/proyecto_clavata/XmlSigner/src/main/java/com/clavata/xmlsigner/include/comonFunc.java
/home/esteban/proyectos_web/proyecto_clavata/XmlSigner/src/main/java/com/clavata/xmlsigner/login/LoginModel.java
/home/esteban/proyectos_web/proyecto_clavata/XmlSigner/src/main/java/com/clavata/xmlsigner/login/LoginServlet.java
/home/esteban/proyectos_web/proyecto_clavata/XmlSigner/src/main/java/com/clavata/xmlsigner/login/SetPassModel.java
/home/esteban/proyectos_web/proyecto_clavata/XmlSigner/src/main/java/com/clavata/xmlsigner/login/SetPassServlet.java
/home/esteban/proyectos_web/proyecto_clavata/XmlSigner/src/main/java/com/clavata/xmlsigner/service/TokenSignerService.java
/home/esteban/proyectos_web/proyecto_clavata/XmlSigner/src/main/java/com/clavata/xmlsigner/service/XmlSignerService.java
/home/esteban/proyectos_web/proyecto_clavata/XmlSigner/src/main/java/com/clavata/xmlsigner/usuario/Usuario.java
/home/esteban/proyectos_web/proyecto_clavata/XmlSigner/src/main/java/com/clavata/xmlsigner/usuario/UsuarioDAO.java
/home/esteban/proyectos_web/proyecto_clavata/XmlSigner/src/main/java/com/clavata/xmlsigner/usuario/UsuarioServlet.java
/home/esteban/proyectos_web/proyecto_clavata/XmlSigner/src/main/java/com/clavata/xmlsigner/usuario/adminCert.java
/home/esteban/proyectos_web/proyecto_clavata/XmlSigner/src/main/java/com/clavata/xmlsigner/usuario/setFirmaPass.java
/home/esteban/proyectos_web/proyecto_clavata/XmlSigner/src/main/java/com/clavata/xmlsigner/usuario/uploadCert.java
/home/esteban/proyectos_web/proyecto_clavata/XmlSigner/src/main/java/com/clavata/xmlsigner/web/IndexServlet.java
/home/esteban/proyectos_web/proyecto_clavata/XmlSigner/src/main/java/com/clavata/xmlsigner/web/TokenSignServlet.java
/home/esteban/proyectos_web/proyecto_clavata/XmlSigner/src/main/java/com/clavata/xmlsigner/web/XmlSignServlet.java
